%YAML 1.1
%TAG !u! tag:unity3d.com,2011:
--- !u!1045 &1
EditorBuildSettings:
  m_ObjectHideFlags: 0
  serializedVersion: 2
  m_Scenes:
  - enabled: 1
    path: Assets/Examples/test.unity
    guid: 61a0d1a0d873e40d9a53079a48cb5adc
  m_configObjects: {}
